{
  "version": 1,
  "dependencies": [
    {
      "source": {
        "git": {
          "remote": "https://github.com/brancz/kubernetes-grafana.git",
          "subdir": "grafana"
        }
      },
      "version": "57b4365eacda291b82e0d55ba7eec573a8198dda",
      "sum": "92DWADwGjnCfpZaL7Q07C0GZayxBziGla/O03qWea34="
    },
    {
      "source": {
        "git": {
          "remote": "https://github.com/coreos/etcd.git",
          "subdir": "Documentation/etcd-mixin"
        }
      },
      "version": "c20cc05fc54849b193c11702afda17782a1d9f7f",
      "sum": "NhOkJWkO7ZO2DSE8Fvipcs7Hh2/GOCS0WjPPZU8OiaQ="
    },
    {
      "source": {
        "git": {
          "remote": "https://github.com/coreos/prometheus-operator.git",
          "subdir": "jsonnet/prometheus-operator"
        }
      },
      "version": "9b0857f9892bdb233d48b3870f9b1544c1fde226",
      "sum": "WggWVWZ+CBEUThQCztSaRELbtqdXf9s3OFzf06HbYNA="
    },
    {
      "source": {
        "git": {
          "remote": "https://github.com/grafana/grafonnet-lib.git",
          "subdir": "grafonnet"
        }
      },
      "version": "bc2e772ab1b22fca82fe1b945528ef2769bbeef5",
      "sum": "F3XCNiNud5ckXNiMeMD/0ZFwznQ8RccH80+9+gqjmzo="
    },
    {
      "source": {
        "git": {
          "remote": "https://github.com/grafana/jsonnet-libs.git",
          "subdir": "grafana-builder"
        }
      },
      "version": "fbff57b2c10a8458f8c0a43afe78f39b2fe73363",
      "sum": "R5WJe6wW0R9vMpOAHaGFwcK8q4NmGZ0aLhdZGKDHeMU="
    },
    {
      "source": {
        "git": {
          "remote": "https://github.com/ksonnet/ksonnet-lib.git",
          "subdir": ""
        }
      },
      "version": "0d2f82676817bbf9e4acf6495b2090205f323b9f",
      "sum": "h28BXZ7+vczxYJ2sCt8JuR9+yznRtU/iA6DCpQUrtEg=",
      "name": "ksonnet"
    },
    {
      "source": {
        "git": {
          "remote": "https://github.com/kubernetes-monitoring/kubernetes-mixin.git",
          "subdir": ""
        }
      },
      "version": "dc563cbb03da396d23bc49f33d4f7ae28db514a4",
      "sum": "ZBRziwnNo3LPC4XhIjpWahz+gT+w3i2+klIcHx2r7d0="
    },
    {
      "source": {
        "git": {
          "remote": "https://github.com/kubernetes-monitoring/kubernetes-mixin.git",
          "subdir": "lib/promgrafonnet"
        }
      },
      "version": "feed1d35a397dcda248bf59bb4828b2c23900da4",
      "sum": "VhgBM39yv0f4bKv8VfGg4FXkg573evGDRalip9ypKbc="
    },
    {
      "source": {
        "git": {
          "remote": "https://github.com/kubernetes/kube-state-metrics.git",
          "subdir": "jsonnet/kube-state-metrics"
        }
      },
      "version": "89aaf6c524ee891140c4c8f2a05b1b16f5847309",
      "sum": "zD/pbQLnQq+5hegEelaheHS8mn1h09GTktFO74iwlBI="
    },
    {
      "source": {
        "git": {
          "remote": "https://github.com/kubernetes/kube-state-metrics.git",
          "subdir": "jsonnet/kube-state-metrics-mixin"
        }
      },
      "version": "89aaf6c524ee891140c4c8f2a05b1b16f5847309",
      "sum": "E1GGavnf9PCWBm4WVrxWnc0FIj72UcbcweqGioWrOdU="
    },
    {
      "source": {
        "git": {
          "remote": "https://github.com/prometheus-operator/kube-prometheus.git",
          "subdir": "jsonnet/kube-prometheus"
        }
      },
      "version": "f1d92c8a803dcfc1a3f6dd20215452f61f2de6ba",
      "sum": "IqAA65d8ZkOnE9U5cZR5RcjuPJvFQ+umSAnrF7ldOnY="
    },
    {
      "source": {
        "git": {
          "remote": "https://github.com/prometheus/node_exporter.git",
          "subdir": "docs/node-mixin"
        }
      },
      "version": "e51b508428cf3e7ed618a0f73143df00af6de073",
      "sum": "RFg5r6dCnmT8C035ZMHEIni+UOSsI3uwQjH7D4Bh3FM="
    },
    {
      "source": {
        "git": {
          "remote": "https://github.com/prometheus/prometheus.git",
          "subdir": "documentation/prometheus-mixin"
        }
      },
      "version": "983ebb4a513302315a8117932ab832815f85e3d2",
      "sum": "TBq4SL7YsPInARbJqwz25JaBvvAegcnRCsuz3K9niWc=",
      "name": "prometheus"
    }
  ],
  "legacyImports": false
}
